…
``` r
all_words <- str_split(product_reviews$text, boundary("word")) %>% unlist()  

filtered_words_general <- tibble(word = all_words) %>%  
  filter(!word %in% stop_words_list) %>%  
  count(word, name = "frequency") %>%  
  arrange(desc(frequency))  

top_25_words <- filtered_words_general %>%  
  top_n(25, frequency)  

top_25_words  
```

    ## # A tibble: 25 × 2
    ##    word    frequency
    ##    <chr>       <int>
    ##  1 I          590664
    ##  2 br         136733
    ##  3 product    100609
    ##  4 The         94872
    ##  5 It          81421
    ##  6 use         80636
    ##  7 like        76352
    ##  8 great       71485
    ##  9 This        69662
    ## 10 one         64936
    ## # ℹ 15 more rows
