…
##### Combinamos todos los data frames resultantes en uno solo utilizando bind_rows de dplyr y mostramos el data frame combinado. El resultado de unir todos los data frames fue de 2,180 filas \* 9 columnas.

``` r
# Combinamos todos los dataframes en uno solo.
combined_data <- bind_rows(X01_2023, X02_2023, X03_2023, X04_2023, X05_2023, X06_2023, X07_2023, X08_2023, X09_2023, X10_2023, X11_2023)

# Ver el dataframe combinado.
print(combined_data)
```

    ## # A tibble: 2,180 × 9
    ##    COD_VIAJE CLIENTE   UBICACION CANTIDAD PILOTO     Q CREDITO UNIDAD FECHA     
    ##        <dbl> <chr>         <dbl>    <dbl> <chr>  <dbl>   <dbl> <chr>  <date>    
    ##  1  10000001 EL PINCH…     76002     1200 Ferna… 300        30 Camio… 2023-01-01
    ##  2  10000002 TAQUERIA…     76002     1433 Hecto… 358.       90 Camio… 2023-01-01
    ##  3  10000003 TIENDA L…     76002     1857 Pedro… 464.       60 Camio… 2023-01-01
    ##  4  10000004 TAQUERIA…     76002      339 Angel…  84.8      30 Panel  2023-01-01
    ##  5  10000005 CHICHARR…     76001     1644 Juan … 411        30 Camio… 2023-01-01
    ##  6  10000006 UBIQUO L…     76001     1827 Luis … 457.       30 Camio… 2023-01-01
    ##  7  10000007 CHICHARR…     76002     1947 Ismae… 487.       90 Camio… 2023-01-01
    ##  8  10000008 TAQUERIA…     76001     1716 Juan … 429        60 Camio… 2023-01-01
    ##  9  10000009 EL GALLO…     76002     1601 Ismae… 400.       30 Camio… 2023-01-01
    ## 10  10000010 CHICHARR…     76002     1343 Ferna… 336.       90 Camio… 2023-01-01
    ## # ℹ 2,170 more rows
…
